{
  "facebook": {
    "active": true,
    "appSecret": "f8f14c3dac39e3bb207401824779103c",
    "pageAccessToken": "EAAFRppA6gu0BALfNPnkMKFQwvxroYHTurNulqP4QikvenTf4lBcvWwZBGKMJj3nS1bLlEBQSPOwCsdqMdR3kclZCKtQryZAGQB67sGxofo0W9ZCo124qEPmc9FxZBckwlaUJ0OwYga2fsff9DpKUqTwLCsmgZAnp4fxRcr1YnSUgZDZD",
    "validationToken": "89csdfsKLGvxasu7",
    "menuUrl" : "https://croatiaairlines.hr/",
    "port": 8442
  },
  "telegram" : {
    "active": false,
    "token": "197565943:AAE5jxfMXDn7duMWHNrV9MWaNzNHQcohVz0",
    "port": 8443
  },
  "slack": {
    "active": false,
    "token": "1214321",
    "port": 8444
  },
  "port": 3020,
  "sslPort": 3043,
  "chatscript": {
          "host": "0.0.0.0",
          "port": 1024,
          "bot": "lenbot"
  },
  "domain": "bot.lenitos.com",
  "email":"ivan.britvic@lenitos.com",
  "fbUri": "https://graph.facebook.com/v2.6/me/messages"
}